1.5: Data Wrangling in the tidyverse
…
---

# Tibble

.pull-left[

```r
diamonds
```

<!--Can't fit in columns so artificially selecting to print only first 7 columns --> 

```
## # A tibble: 53,940 x 7
##    carat cut       color clarity depth table price
##    <dbl> <ord>     <ord> <ord>   <dbl> <dbl> <int>
##  1 0.23  Ideal     E     SI2      61.5    55   326
##  2 0.21  Premium   E     SI1      59.8    61   326
##  3 0.23  Good      E     VS1      56.9    65   327
##  4 0.290 Premium   I     VS2      62.4    58   334
##  5 0.31  Good      J     SI2      63.3    58   335
##  6 0.24  Very Good J     VVS2     62.8    57   336
##  7 0.24  Very Good I     VVS1     62.3    57   336
##  8 0.26  Very Good H     SI1      61.9    55   337
##  9 0.22  Fair      E     VS2      65.1    61   337
## 10 0.23  Very Good H     VS1      59.4    61   338
## # … with 53,930 more rows
```
…
# using the pipe

gapminder %>%
  filter(continent == "Africa")
```

]

--

.right-plot[

```
## # A tibble: 624 x 6
##    country continent  year lifeExp      pop gdpPercap
##    <fct>   <fct>     <int>   <dbl>    <int>     <dbl>
##  1 Algeria Africa     1952    43.1  9279525     2449.
##  2 Algeria Africa     1957    45.7 10270856     3014.
##  3 Algeria Africa     1962    48.3 11000948     2551.
##  4 Algeria Africa     1967    51.4 12760499     3247.
##  5 Algeria Africa     1972    54.5 14760787     4183.
##  6 Algeria Africa     1977    58.0 17152804     4910.
##  7 Algeria Africa     1982    61.4 20033753     5745.
##  8 Algeria Africa     1987    65.8 23254956     5681.
##  9 Algeria Africa     1992    67.7 26298373     5023.
## 10 Algeria Africa     1997    69.2 29072015     4797.
## # … with 614 more rows
```
…
# using the pipe
africa <- gapminder %>%
  filter(continent == "Africa")

# look at new tibble
africa
```
]

.right-plot[

```
## # A tibble: 624 x 6
##    country continent  year lifeExp      pop gdpPercap
##    <fct>   <fct>     <int>   <dbl>    <int>     <dbl>
##  1 Algeria Africa     1952    43.1  9279525     2449.
##  2 Algeria Africa     1957    45.7 10270856     3014.
##  3 Algeria Africa     1962    48.3 11000948     2551.
##  4 Algeria Africa     1967    51.4 12760499     3247.
##  5 Algeria Africa     1972    54.5 14760787     4183.
##  6 Algeria Africa     1977    58.0 17152804     4910.
##  7 Algeria Africa     1982    61.4 20033753     5745.
##  8 Algeria Africa     1987    65.8 23254956     5681.
##  9 Algeria Africa     1992    67.7 26298373     5023.
## 10 Algeria Africa     1997    69.2 29072015     4797.
## # … with 614 more rows
```
]

---

# dplyr: saving and storing outputs II

- If you want to *both* store and view the output at the same time, wrap the command in parentheses!

```r
(africa <- gapminder %>%
  filter(continent == "Africa"))
```

```
## # A tibble: 624 x 6
##    country continent  year lifeExp      pop gdpPercap
##    <fct>   <fct>     <int>   <dbl>    <int>     <dbl>
##  1 Algeria Africa     1952    43.1  9279525     2449.
##  2 Algeria Africa     1957    45.7 10270856     3014.
##  3 Algeria Africa     1962    48.3 11000948     2551.
##  4 Algeria Africa     1967    51.4 12760499     3247.
##  5 Algeria Africa     1972    54.5 14760787     4183.
##  6 Algeria Africa     1977    58.0 17152804     4910.
##  7 Algeria Africa     1982    61.4 20033753     5745.
##  8 Algeria Africa     1987    65.8 23254956     5681.
##  9 Algeria Africa     1992    67.7 26298373     5023.
## 10 Algeria Africa     1997    69.2 29072015     4797.
## # … with 614 more rows
```
…
.left-code[

```r
# look only at African observations in 1997
gapminder %>%
  filter(continent == "Africa", year == 1997)
```
]

--

.right-plot[

```
## # A tibble: 52 x 6
##    country                  continent  year lifeExp      pop gdpPercap
##    <fct>                    <fct>     <int>   <dbl>    <int>     <dbl>
##  1 Algeria                  Africa     1997    69.2 29072015     4797.
##  2 Angola                   Africa     1997    41.0  9875024     2277.
##  3 Benin                    Africa     1997    54.8  6066080     1233.
##  4 Botswana                 Africa     1997    52.6  1536536     8647.
##  5 Burkina Faso             Africa     1997    50.3 10352843      946.
##  6 Burundi                  Africa     1997    45.3  6121610      463.
##  7 Cameroon                 Africa     1997    52.2 14195809     1694.
##  8 Central African Republic Africa     1997    46.1  3696513      741.
##  9 Chad                     Africa     1997    51.6  7562011     1005.
## 10 Comoros                  Africa     1997    60.7   527982     1174.
## # … with 42 more rows
```
…
.left-code[

```r
# look only at African observations or observations in 1997
gapminder %>%
  filter(continent == "Africa" | year == 1997)
```
]

--

.right-plot[

```
## # A tibble: 714 x 6
##    country     continent  year lifeExp      pop gdpPercap
##    <fct>       <fct>     <int>   <dbl>    <int>     <dbl>
##  1 Afghanistan Asia       1997    41.8 22227415      635.
##  2 Albania     Europe     1997    73.0  3428038     3193.
##  3 Algeria     Africa     1952    43.1  9279525     2449.
##  4 Algeria     Africa     1957    45.7 10270856     3014.
##  5 Algeria     Africa     1962    48.3 11000948     2551.
##  6 Algeria     Africa     1967    51.4 12760499     3247.
##  7 Algeria     Africa     1972    54.5 14760787     4183.
##  8 Algeria     Africa     1977    58.0 17152804     4910.
##  9 Algeria     Africa     1982    61.4 20033753     5745.
## 10 Algeria     Africa     1987    65.8 23254956     5681.
## # … with 704 more rows
```
…
# using the pipe

gapminder %>%
  arrange(pop)
```

]

--

.right-plot[

```
## # A tibble: 1,704 x 6
##    country               continent  year lifeExp   pop gdpPercap
##    <fct>                 <fct>     <int>   <dbl> <int>     <dbl>
##  1 Sao Tome and Principe Africa     1952    46.5 60011      880.
##  2 Sao Tome and Principe Africa     1957    48.9 61325      861.
##  3 Djibouti              Africa     1952    34.8 63149     2670.
##  4 Sao Tome and Principe Africa     1962    51.9 65345     1072.
##  5 Sao Tome and Principe Africa     1967    54.4 70787     1385.
##  6 Djibouti              Africa     1957    37.3 71851     2865.
##  7 Sao Tome and Principe Africa     1972    56.5 76595     1533.
##  8 Sao Tome and Principe Africa     1977    58.6 86796     1738.
##  9 Djibouti              Africa     1962    39.7 89898     3021.
## 10 Sao Tome and Principe Africa     1982    60.4 98593     1890.
## # … with 1,694 more rows
```
…
# using the pipe

gapminder %>%
  arrange(year, pop)
```

]

--

.right-plot[

```
## # A tibble: 1,704 x 6
##    country               continent  year lifeExp    pop gdpPercap
##    <fct>                 <fct>     <int>   <dbl>  <int>     <dbl>
##  1 Sao Tome and Principe Africa     1952    46.5  60011      880.
##  2 Djibouti              Africa     1952    34.8  63149     2670.
##  3 Bahrain               Asia       1952    50.9 120447     9867.
##  4 Iceland               Europe     1952    72.5 147962     7268.
##  5 Comoros               Africa     1952    40.7 153936     1103.
##  6 Kuwait                Asia       1952    55.6 160000   108382.
##  7 Equatorial Guinea     Africa     1952    34.5 216964      376.
##  8 Reunion               Africa     1952    52.7 257700     2719.
##  9 Gambia                Africa     1952    30   284320      485.
## 10 Swaziland             Africa     1952    41.4 290243     1148.
## # … with 1,694 more rows
```
…
# using the pipe

gapminder %>%
  arrange(desc(pop))
```

]

--

.right-plot[

```
## # A tibble: 1,704 x 6
##    country continent  year lifeExp        pop gdpPercap
##    <fct>   <fct>     <int>   <dbl>      <int>     <dbl>
##  1 China   Asia       2007    73.0 1318683096     4959.
##  2 China   Asia       2002    72.0 1280400000     3119.
##  3 China   Asia       1997    70.4 1230075000     2289.
##  4 China   Asia       1992    68.7 1164970000     1656.
##  5 India   Asia       2007    64.7 1110396331     2452.
##  6 China   Asia       1987    67.3 1084035000     1379.
##  7 India   Asia       2002    62.9 1034172547     1747.
##  8 China   Asia       1982    65.5 1000281000      962.
##  9 India   Asia       1997    61.8  959000000     1459.
## 10 China   Asia       1977    64.0  943455000      741.
## # … with 1,694 more rows
```
…
# using the pipe

gapminder %>%
  select(country, year, pop)
```

]

--

.right-plot[

```
## # A tibble: 1,704 x 3
##    country      year      pop
##    <fct>       <int>    <int>
##  1 Afghanistan  1952  8425333
##  2 Afghanistan  1957  9240934
##  3 Afghanistan  1962 10267083
##  4 Afghanistan  1967 11537966
##  5 Afghanistan  1972 13079460
##  6 Afghanistan  1977 14880372
##  7 Afghanistan  1982 12881816
##  8 Afghanistan  1987 13867957
##  9 Afghanistan  1992 16317921
## 10 Afghanistan  1997 22227415
## # … with 1,694 more rows
```
…
# using the pipe

gapminder %>%
  select(-gdpPercap)
```

]

--

.right-plot[

```
## # A tibble: 1,704 x 5
##    country     continent  year lifeExp      pop
##    <fct>       <fct>     <int>   <dbl>    <int>
##  1 Afghanistan Asia       1952    28.8  8425333
##  2 Afghanistan Asia       1957    30.3  9240934
##  3 Afghanistan Asia       1962    32.0 10267083
##  4 Afghanistan Asia       1967    34.0 11537966
##  5 Afghanistan Asia       1972    36.1 13079460
##  6 Afghanistan Asia       1977    38.4 14880372
##  7 Afghanistan Asia       1982    39.9 12881816
##  8 Afghanistan Asia       1987    40.8 13867957
##  9 Afghanistan Asia       1992    41.7 16317921
## 10 Afghanistan Asia       1997    41.8 22227415
## # … with 1,694 more rows
```
…
# using the pipe

gapminder %>%
  select(pop, everything())
```

]

--

.right-plot[

```
## # A tibble: 1,704 x 6
##         pop country     continent  year lifeExp gdpPercap
##       <int> <fct>       <fct>     <int>   <dbl>     <dbl>
##  1  8425333 Afghanistan Asia       1952    28.8      779.
##  2  9240934 Afghanistan Asia       1957    30.3      821.
##  3 10267083 Afghanistan Asia       1962    32.0      853.
##  4 11537966 Afghanistan Asia       1967    34.0      836.
##  5 13079460 Afghanistan Asia       1972    36.1      740.
##  6 14880372 Afghanistan Asia       1977    38.4      786.
##  7 12881816 Afghanistan Asia       1982    39.9      978.
##  8 13867957 Afghanistan Asia       1987    40.8      852.
##  9 16317921 Afghanistan Asia       1992    41.7      649.
## 10 22227415 Afghanistan Asia       1997    41.8      635.
## # … with 1,694 more rows
```
…
--

.pull-left[

```r
# keep all variables starting with "co"

gapminder %>%
  select(starts_with("co"))
```

```
## # A tibble: 1,704 x 2
##    country     continent
##    <fct>       <fct>    
##  1 Afghanistan Asia     
##  2 Afghanistan Asia     
##  3 Afghanistan Asia     
##  4 Afghanistan Asia     
##  5 Afghanistan Asia     
##  6 Afghanistan Asia     
##  7 Afghanistan Asia     
##  8 Afghanistan Asia     
##  9 Afghanistan Asia     
## 10 Afghanistan Asia     
## # … with 1,694 more rows
```
]

--

.pull-right[

```r
# keep country and all variables containing "per"

gapminder %>%
  select(country, contains("per"))
```

```
## # A tibble: 1,704 x 2
##    country     gdpPercap
##    <fct>           <dbl>
##  1 Afghanistan      779.
##  2 Afghanistan      821.
##  3 Afghanistan      853.
##  4 Afghanistan      836.
##  5 Afghanistan      740.
##  6 Afghanistan      786.
##  7 Afghanistan      978.
##  8 Afghanistan      852.
##  9 Afghanistan      649.
## 10 Afghanistan      635.
## # … with 1,694 more rows
```
…
# using the pipe

gapminder %>%
  rename(GDP = gdpPercap)
```

]

--

.right-plot[

```
## # A tibble: 1,704 x 6
##    country     continent  year lifeExp      pop   GDP
##    <fct>       <fct>     <int>   <dbl>    <int> <dbl>
##  1 Afghanistan Asia       1952    28.8  8425333  779.
##  2 Afghanistan Asia       1957    30.3  9240934  821.
##  3 Afghanistan Asia       1962    32.0 10267083  853.
##  4 Afghanistan Asia       1967    34.0 11537966  836.
##  5 Afghanistan Asia       1972    36.1 13079460  740.
##  6 Afghanistan Asia       1977    38.4 14880372  786.
##  7 Afghanistan Asia       1982    39.9 12881816  978.
##  8 Afghanistan Asia       1987    40.8 13867957  852.
##  9 Afghanistan Asia       1992    41.7 16317921  649.
## 10 Afghanistan Asia       1997    41.8 22227415  635.
## # … with 1,694 more rows
```
…
gapminder %>%
  mutate(europe = ifelse(continent == "Europe", 
                                  yes = "In Europe", 
                                  no = "Not in Europe"))
```

]

--

.right-plot[

```
## # A tibble: 1,704 x 7
##    country     continent  year lifeExp      pop gdpPercap europe       
##    <fct>       <fct>     <int>   <dbl>    <int>     <dbl> <chr>        
##  1 Afghanistan Asia       1952    28.8  8425333      779. Not in Europe
##  2 Afghanistan Asia       1957    30.3  9240934      821. Not in Europe
##  3 Afghanistan Asia       1962    32.0 10267083      853. Not in Europe
##  4 Afghanistan Asia       1967    34.0 11537966      836. Not in Europe
##  5 Afghanistan Asia       1972    36.1 13079460      740. Not in Europe
##  6 Afghanistan Asia       1977    38.4 14880372      786. Not in Europe
##  7 Afghanistan Asia       1982    39.9 12881816      978. Not in Europe
##  8 Afghanistan Asia       1987    40.8 13867957      852. Not in Europe
##  9 Afghanistan Asia       1992    41.7 16317921      649. Not in Europe
## 10 Afghanistan Asia       1997    41.8 22227415      635. Not in Europe
## # … with 1,694 more rows
```
…
# using the pipe

gapminder %>%
  rename(pop_millions = pop / 1000000)
```

]

--

.right-plot[

```
## # A tibble: 1,704 x 7
##    country     continent  year lifeExp      pop gdpPercap pop_millions
##    <fct>       <fct>     <int>   <dbl>    <int>     <dbl>        <dbl>
##  1 Afghanistan Asia       1952    28.8  8425333      779.         8.43
##  2 Afghanistan Asia       1957    30.3  9240934      821.         9.24
##  3 Afghanistan Asia       1962    32.0 10267083      853.        10.3 
##  4 Afghanistan Asia       1967    34.0 11537966      836.        11.5 
##  5 Afghanistan Asia       1972    36.1 13079460      740.        13.1 
##  6 Afghanistan Asia       1977    38.4 14880372      786.        14.9 
##  7 Afghanistan Asia       1982    39.9 12881816      978.        12.9 
##  8 Afghanistan Asia       1987    40.8 13867957      852.        13.9 
##  9 Afghanistan Asia       1992    41.7 16317921      649.        16.3 
## 10 Afghanistan Asia       1997    41.8 22227415      635.        22.2 
## # … with 1,694 more rows
```
…
# using the pipe

gapminder %>%
  rename(GDP = gdpPercap * pop)
```

]

--

.right-plot[

```
## # A tibble: 1,704 x 7
##    country     continent  year lifeExp      pop gdpPercap          GDP
##    <fct>       <fct>     <int>   <dbl>    <int>     <dbl>        <dbl>
##  1 Afghanistan Asia       1952    28.8  8425333      779.  6567086330.
##  2 Afghanistan Asia       1957    30.3  9240934      821.  7585448670.
##  3 Afghanistan Asia       1962    32.0 10267083      853.  8758855797.
##  4 Afghanistan Asia       1967    34.0 11537966      836.  9648014150.
##  5 Afghanistan Asia       1972    36.1 13079460      740.  9678553274.
##  6 Afghanistan Asia       1977    38.4 14880372      786. 11697659231.
##  7 Afghanistan Asia       1982    39.9 12881816      978. 12598563401.
##  8 Afghanistan Asia       1987    40.8 13867957      852. 11820990309.
##  9 Afghanistan Asia       1992    41.7 16317921      649. 10595901589.
## 10 Afghanistan Asia       1997    41.8 22227415      635. 14121995875.
## # … with 1,694 more rows
```
…
# dplyr::mutate V

- Can create multiple new variables with commas:

--

```r
gapminder %>%
  mutate(GDP = gdpPercap * pop,
         pop_millions = pop / 1000000)
```

```
## # A tibble: 1,704 x 8
##    country   continent  year lifeExp    pop gdpPercap      GDP pop_millions
##    <fct>     <fct>     <int>   <dbl>  <int>     <dbl>    <dbl>        <dbl>
##  1 Afghanis… Asia       1952    28.8 8.43e6      779.  6.57e 9         8.43
##  2 Afghanis… Asia       1957    30.3 9.24e6      821.  7.59e 9         9.24
##  3 Afghanis… Asia       1962    32.0 1.03e7      853.  8.76e 9        10.3 
##  4 Afghanis… Asia       1967    34.0 1.15e7      836.  9.65e 9        11.5 
##  5 Afghanis… Asia       1972    36.1 1.31e7      740.  9.68e 9        13.1 
##  6 Afghanis… Asia       1977    38.4 1.49e7      786.  1.17e10        14.9 
##  7 Afghanis… Asia       1982    39.9 1.29e7      978.  1.26e10        12.9 
##  8 Afghanis… Asia       1987    40.8 1.39e7      852.  1.18e10        13.9 
##  9 Afghanis… Asia       1992    41.7 1.63e7      649.  1.06e10        16.3 
## 10 Afghanis… Asia       1997    41.8 2.22e7      635.  1.41e10        22.2 
## # … with 1,694 more rows
```

--

- `transmute` keeps *only* newly created variables (`select`s only the new `mutate`d variables)

```r
gapminder %>%
  transmute(GDP = gdpPercap * pop,
         pop_millions = pop / 1000000)
```

```
## # A tibble: 1,704 x 2
##             GDP pop_millions
##           <dbl>        <dbl>
##  1  6567086330.         8.43
##  2  7585448670.         9.24
##  3  8758855797.        10.3 
##  4  9648014150.        11.5 
##  5  9678553274.        13.1 
##  6 11697659231.        14.9 
##  7 12598563401.        12.9 
##  8 11820990309.        13.9 
##  9 10595901589.        16.3 
## 10 14121995875.        22.2 
## # … with 1,694 more rows
```
…
